<?xml version="1.0" encoding="UTF-8" standalone="no"?>
<svg width="51px" height="91px" viewBox="0 0 51 91" version="1.1" xmlns="http://www.w3.org/2000/svg" xmlns:xlink="http://www.w3.org/1999/xlink">
    <!-- Generator: Sketch 47.1 (45422) - http://www.bohemiancoding.com/sketch -->
    <title>img_right-header-leaves</title>
    <desc>Created with Sketch.</desc>
    <defs></defs>
    <g id="style-guide" stroke="none" stroke-width="1" fill="none" fill-rule="evenodd">
        <g id="UI_guide" transform="translate(-782.000000, -126.000000)">
            <g id="img_right-header-leaves" transform="translate(769.000000, 119.000000)">
                <g id="Img_leaf" transform="translate(44.887348, 58.500000) scale(-1, 1) translate(-44.887348, -58.500000) translate(24.387348, 42.000000)">
                    <path d="M19.0826619,8.29875506 C19.0826619,8.29875506 10.8155342,4.86456327 10.0183087,14.538637 C8.8726493,28.4762539 21.6716717,29.0644163 23.6571242,33.1183649 C25.3212057,29.5058908 33.7002495,20.8146267 31.0596512,12.2240696 C28.4190529,3.63464079 22.118772,5.88291651 20.220428,7.6513532 C19.919636,3.60981667 21.5061938,-0.940614394 21.5061938,-0.940614394 C21.5061938,-0.940614394 18.6764377,-1.73865354 19.2723836,0.404683836 C19.8700209,2.5485854 19.8418304,7.17941277 19.0826619,8.29875506" id="Fill-1" fill="#648C35" transform="translate(20.758069, 16.016182) rotate(250.000000) translate(-20.758069, -16.016182) "></path>
                    <path d="M30.0448786,22.483839 L29.6847964,22.6380982 C29.6847964,22.6380982 29.6616811,22.5849452 29.6183219,22.4852834 C29.574532,22.3873548 29.5113597,22.2434951 29.4234928,22.0602039 C29.2532147,21.692755 28.9927725,21.1740801 28.6662865,20.558921 C28.013171,19.3286027 27.0621406,17.7283801 26.0120445,16.1941654 C24.966112,14.657062 23.8278618,13.1862553 22.9458903,12.1073075 C22.5031098,11.5694224 22.1166101,11.1356767 21.8543014,10.8252806 C21.7219267,10.6710214 21.6179796,10.5499828 21.5470543,10.4673646 C21.4738318,10.3867685 21.4347799,10.3437262 21.4347799,10.3437262 C21.4347799,10.3437262 21.1724712,10.0393964 20.77908,9.58297406 C20.5813794,9.35548506 20.3546769,9.08582032 20.1041413,8.80416728 C19.8475756,8.52785842 19.5740682,8.23306157 19.3004172,7.93826472 C19.1634482,7.79079407 19.0266227,7.64317899 18.8918072,7.49801934 C18.7578532,7.3517042 18.6243299,7.20957774 18.4889402,7.07828409 C18.2216065,6.81179698 17.9722194,6.56293124 17.7584386,6.34974155 C17.3303026,5.92278442 17.0448786,5.63809819 17.0448786,5.63809819 C17.0448786,5.63809819 17.356433,5.91368486 17.8239081,6.3272093 C18.0577892,6.53404374 18.3305787,6.77554317 18.6230378,7.03423066 C18.9152097,7.29335146 19.208961,7.58872607 19.5124752,7.87442336 C19.8132615,8.1630094 20.1141914,8.45173988 20.3961697,8.72227124 C20.668672,9.00276879 20.9230842,9.26448946 21.1410286,9.48880083 C21.3592603,9.71340108 21.5410242,9.90044759 21.6682303,10.0314524 C21.7967285,10.1614461 21.866218,10.2392979 21.866218,10.2392979 C21.866218,10.2392979 22.0165394,10.4140672 22.2794224,10.7201302 C22.4107921,10.8730894 22.5704457,11.0589804 22.7535019,11.2720257 C22.9369887,11.4847821 23.1451702,11.7239705 23.3582331,11.996524 C24.2363283,13.0653612 25.355196,14.5341457 26.3930884,16.0607052 C27.4329907,17.5861092 28.3766989,19.1766545 29.0263687,20.4020619 C29.3517061,21.0147656 29.610569,21.5318517 29.7812778,21.9004561 C29.868714,22.0828806 29.9337528,22.230929 29.9785477,22.3311686 C30.0217633,22.430686 30.0448786,22.483839 30.0448786,22.483839" id="Fill-24" fill="#FFFFFF" transform="translate(23.544879, 14.138098) scale(-1, 1) rotate(-23.000000) translate(-23.544879, -14.138098) "></path>
                </g>
                <g id="img_leaf" transform="translate(39.500000, 80.373111) scale(-1, -1) rotate(40.000000) translate(-39.500000, -80.373111) translate(9.000000, 55.873111)">
                    <path d="M28.1239929,12.4481326 C28.1239929,12.4481326 15.7233014,7.2968449 14.527463,21.8079555 C12.808974,42.7143808 32.0075076,43.5966245 34.9856863,49.6775474 C37.4818086,44.2588362 50.0503742,31.22194 46.0894768,18.3361043 C42.1285794,5.45196119 32.6781581,8.82437476 29.830642,11.4770298 C29.379454,5.414725 31.7592908,-1.41092159 31.7592908,-1.41092159 C31.7592908,-1.41092159 27.5146566,-2.60798031 28.4085754,0.607025754 C29.3050313,3.8228781 29.2627456,10.7691192 28.1239929,12.4481326" id="Fill-1" fill="#76A240" transform="translate(30.637103, 24.024273) rotate(250.000000) translate(-30.637103, -24.024273) "></path>
                    <path d="M22.2981263,29.3651588 L22.1366985,28.7996125 C22.1366985,28.7996125 22.2193047,28.7747227 22.3741945,28.7280274 C22.5266079,28.6803753 22.7502951,28.6120993 23.036647,28.5140915 C23.6096285,28.3263784 24.4221062,28.0314229 25.3889474,27.6553276 C27.322656,26.9029227 29.8563652,25.7726813 32.3109136,24.4825804 C34.7689578,23.199219 37.1461782,21.7660208 38.8986614,20.6445195 C39.7728894,20.0808018 40.4832571,19.5822613 40.9889914,19.2468136 C41.2406981,19.0770978 41.4382129,18.9438116 41.5730272,18.8528734 C41.7052813,18.7581392 41.7759019,18.7076248 41.7759019,18.7076248 C41.7759019,18.7076248 42.272692,18.371079 43.0177575,17.8663543 C43.3894096,17.6123607 43.8285623,17.3227012 44.2897597,16.9996278 C44.7441831,16.6665838 45.2289709,16.3115919 45.713785,15.9563857 C45.9563249,15.7785813 46.1990514,15.6010174 46.4377892,15.4260101 C46.6780726,15.2524981 46.9121014,15.0788709 47.1305004,14.9004959 C47.5724167,14.5495967 47.985062,14.2223026 48.3385792,13.9417118 C49.0465707,13.3797773 49.5186361,13.005163 49.5186361,13.005163 C49.5186361,13.005163 49.0551968,13.4204385 48.3597986,14.04354 C48.0119667,14.355292 47.605892,14.7188607 47.1708694,15.1086853 C46.7352606,15.4980028 46.2459098,15.8831151 45.7690374,16.284556 C45.2884059,16.681401 44.8075351,17.0784342 44.3569713,17.4504663 C43.8934506,17.8065463 43.4609308,18.1390158 43.0902525,18.4238097 C42.7190957,18.7089801 42.4099933,18.9465009 42.1935205,19.1127096 C41.9783014,19.2810305 41.850778,19.370688 41.850778,19.370688 C41.850778,19.370688 41.5655412,19.5634861 41.0660904,19.9005756 C40.8164846,20.0690263 40.5131392,20.2737445 40.1654675,20.508488 C39.8181428,20.7439268 39.4273196,21.0114509 38.9864082,21.2802231 C37.2495427,22.3977669 34.878857,23.8023923 32.4378326,25.0756582 C29.9981435,26.3521344 27.4800448,27.4731953 25.5542085,28.2213445 C24.5911982,28.5961694 23.7813524,28.8890546 23.2065884,29.0772016 C22.9215932,29.1747232 22.691388,29.2450276 22.5353831,29.2937619 C22.3807325,29.3402689 22.2981263,29.3651588 22.2981263,29.3651588 Z" id="Fill-24" fill="#FFFFFF"></path>
                </g>
                <g id="img_leaf" transform="translate(39.387348, 22.000000) scale(-1, -1) translate(-39.387348, -22.000000) translate(12.387348, 0.000000)">
                    <path d="M24.8140552,11.1762336 C24.8140552,11.1762336 13.6804154,6.55128329 12.6067629,19.5797082 C11.063862,38.350001 28.3007684,39.1421007 30.9746491,44.6016999 C33.2157278,39.7366503 44.5000891,28.0318106 40.9438999,16.4625966 C37.3877107,4.89490221 28.9028945,7.92273644 26.3463259,10.3043541 C25.9412385,4.86147067 28.0779133,-1.26675942 28.0779133,-1.26675942 C28.0779133,-1.26675942 24.2669784,-2.34150761 25.0695602,0.545002359 C25.87442,3.43227213 25.8364549,9.66877484 24.8140552,11.1762336" id="Fill-1" fill="#76A240" transform="translate(27.070386, 21.569571) rotate(250.000000) translate(-27.070386, -21.569571) "></path>
                    <path d="M18.5517894,25.7146896 C18.5517894,25.7146896 18.6195014,25.6955075 18.7464661,25.659517 C18.8715333,25.622555 19.0549572,25.5698157 19.290591,25.4926712 C19.7614339,25.3459336 20.4313192,25.1117245 21.2304287,24.8102229 C22.8286852,24.2070262 24.9340842,23.285553 26.9888818,22.2156272 C29.045939,21.1519665 31.0502911,19.9488862 32.5329473,19.0029941 C33.2729029,18.5272701 33.8773135,18.1039493 34.3060986,17.8202635 C34.519722,17.6765635 34.6873613,17.5637021 34.8017812,17.4867015 C34.9144576,17.4061476 34.9746187,17.3631986 34.9746187,17.3631986 C34.9746187,17.3631986 35.3963672,17.0781451 36.0288874,16.6506452 C36.3445732,16.4353774 36.7167809,16.1905158 37.1091405,15.9162229 C37.4968815,15.6325947 37.9105076,15.3302926 38.3241712,15.0277969 C38.5311244,14.8763717 38.7382076,14.7251727 38.9419157,14.5761302 C39.1467385,14.4285097 39.3465897,14.2805255 39.5343648,14.1275823 C39.9135354,13.8272212 40.2675629,13.5470844 40.5708768,13.3069117 C41.1783253,12.8259221 41.5833468,12.5052732 41.5833468,12.5052732 C41.5833468,12.5052732 41.1820319,12.8632052 40.5798543,13.4002643 C40.2786441,13.6689712 39.9270277,13.9823223 39.5503192,14.3183184 C39.1731833,14.6538298 38.7535816,14.9832964 38.3426462,15.3281083 C37.929075,15.668591 37.5152986,16.0092346 37.1275988,16.3284291 C36.7308224,16.6326002 36.3605671,16.9166138 36.0432616,17.1598928 C35.7255457,17.4034938 35.4609472,17.6063928 35.275652,17.7483671 C35.0911909,17.8923115 34.982676,17.968451 34.982676,17.968451 C34.982676,17.968451 34.7405588,18.1317241 34.3166493,18.4171612 C34.1047971,18.5597992 33.8473336,18.7331474 33.5522397,18.9319267 C33.2573679,19.1313518 32.9253647,19.3581131 32.5533809,19.5839333 C31.0834683,20.5268784 29.0865414,21.7042813 27.0438217,22.7594789 C25.0019155,23.8176471 22.9096606,24.7314296 21.3180034,25.3310877 C20.5220431,25.6315942 19.8544146,25.8640321 19.3821185,26.0110899 C19.1476028,26.0878491 18.9588311,26.1421605 18.83082,26.1799566 C18.7040604,26.2157861 18.6363484,26.2349681 18.6363484,26.2349681 L18.5517894,25.7146896 Z" id="Fill-24" fill="#FFFFFF"></path>
                </g>
                <g id="Group-10" transform="translate(50.724783, 40.148595) rotate(-80.000000) translate(-50.724783, -40.148595) translate(39.224783, 29.648595)">
                    <path d="M12.9174457,9.54649201 C13.8186852,9.85391484 18.7249333,4.23268338 16.9124404,1.60356729 C15.3007236,-0.735149389 13.6664759,0.387895249 11.6607172,0.247201739 C7.25315499,-0.0592197138 9.33601976,8.41543635 10.6663495,8.97620764 C11.178554,9.1940072 12.3491641,9.36374065 12.9174457,9.54649201" id="Fill-33" fill="#FFF9BD"></path>
                    <path d="M9.80912047,10.9258392 C8.9344174,10.6359404 3.61760464,16.0088303 5.56328073,18.4581992 C6.95118966,20.2111101 9.48817904,21.1303745 11.3607546,20.6371962 C15.5169711,19.5396867 12.7426553,12.6782494 11.4588896,12.1304961 C10.9632078,11.9177034 10.3859138,11.1211077 9.80912047,10.9258392" id="Fill-35" fill="#FFF9BD"></path>
                    <path d="M10.0926605,9.16041099 C10.484199,8.34478918 5.49583797,3.06953358 2.74805867,4.54806716 C0.574569244,5.71316964 1.19692523,7.46207509 0.854454198,9.34766854 C0.104422603,13.4858602 8.34425569,12.1865732 9.26051592,11.1626649 C10.8927609,10.4036209 9.83280304,9.70365817 10.0926605,9.16041099" id="Fill-37" fill="#FFF9BD"></path>
                    <path d="M12.254584,11.8277797 C11.8710565,12.6494098 16.2360601,17.2427274 19.1025026,15.9980154 C21.4031669,14.9996423 21.7526476,13.0469566 21.6825512,11.2319602 C21.5263364,7.02166936 13.8427684,9.01941707 12.8353828,10.0733667 C11.8330041,11.121308 12.5099352,11.2815284 12.254584,11.8277797" id="Fill-39" fill="#FFF9BD"></path>
                    <path d="M13.089983,10.9034083 C12.7374982,11.9092918 11.6314769,12.4335128 10.6140776,12.0825301 C9.59467552,11.7300453 9.05343109,10.6280296 9.40241108,9.62965639 C9.75639795,8.63028185 10.8654233,8.1030567 11.8788171,8.45704358 C12.893713,8.80952838 13.4354581,9.90553584 13.089983,10.9034083" id="Fill-41" fill="#F9A75E"></path>
                    <path d="M8.37730114,5.35728015 C8.64116406,3.93131888 6.42411472,-1.09259102 4.34124995,0.302828248 C1.95046165,1.9015271 7.09153269,4.92969205 8.37730114,5.35728015" id="Fill-43" fill="#FFE343"></path>
                    <path d="M16.2656007,7.63055682 C16.6826744,6.24164651 20.9490423,2.78989897 22.1622109,4.9809125 C23.5636385,7.50638604 17.6084477,7.8388433 16.2656007,7.63055682" id="Fill-45" fill="#FFE343"></path>
                    <path d="M14.0448463,15.2512383 C13.7819848,16.6787017 15.9955293,21.7041136 18.0793954,20.3116985 C20.4741892,18.7034866 15.3326175,15.6808292 14.0448463,15.2512383" id="Fill-47" fill="#FFE343"></path>
                    <path d="M6.15699733,12.9796139 C5.73742024,14.3655201 1.47505778,17.8192704 0.25938574,15.6292583 C-1.13853697,13.1042854 4.81465106,12.7698254 6.15699733,12.9796139" id="Fill-49" fill="#FFE343"></path>
                </g>
            </g>
        </g>
    </g>
</svg>